Starter Bot connected and running!
Traceback (most recent call last):
  File "slackbot.py", line 219, in <module>
    slack_client.rtm_read())
  File "slackbot.py", line 75, in parse_bot_commands
    if user_id == starterbot_id:
UnboundLocalError: local variable 'starterbot_id' referenced before assignment
